…
I have checked my datasets in the console, and they look good.

## Select

`Select` is useful when we only want to select a certain **columns**
(variables) from the imported datatset.

Here are several ways to do it:

1.  Specify the columns you want to keep by naming all of them.

``` r
select(litters_data, group, litter_number, gd0_weight, pups_born_alive)
## # A tibble: 49 × 4
##   group litter_number gd0_weight pups_born_alive
##   <chr> <chr>              <dbl>           <dbl>
## 1 Con7  #85                 19.7               3
## 2 Con7  #1/2/95/2           27                 8
## 3 Con7  #5/5/3/83/3-3       26                 6
## # … with 46 more rows
```

2.  We can specify a **range** of variables we want to include. This is
    a nice little shorthand, so we don’t need to list every variable
    out.

``` r
select(litters_data, group:gd_of_birth)
## # A tibble: 49 × 5
##   group litter_number gd0_weight gd18_weight gd_of_birth
##   <chr> <chr>              <dbl>       <dbl>       <dbl>
## 1 Con7  #85                 19.7        34.7          20
## 2 Con7  #1/2/95/2           27          42            19
## 3 Con7  #5/5/3/83/3-3       26          41.4          19
## # … with 46 more rows
```

3.  We can also specify the columns we would like to **remove**.

``` r
select(litters_data, -pups_survive, -group)
## # A tibble: 49 × 6
##   litter_number gd0_weight gd18_weight gd_of_birth pups_born_alive pups_dead_b…¹
##   <chr>              <dbl>       <dbl>       <dbl>           <dbl>         <dbl>
## 1 #85                 19.7        34.7          20               3             4
## 2 #1/2/95/2           27          42            19               8             0
## 3 #5/5/3/83/3-3       26          41.4          19               6             0
## # … with 46 more rows, and abbreviated variable name ¹​pups_dead_birth
```

4.  We can **rename** variables in the process of selecting variables.
    Left side is new name, right side is original variable name.

``` r
select(litters_data, GROUP = group, LiTtEr_NuMbEr = litter_number)
## # A tibble: 49 × 2
##   GROUP LiTtEr_NuMbEr
##   <chr> <chr>        
## 1 Con7  #85          
## 2 Con7  #1/2/95/2    
## 3 Con7  #5/5/3/83/3-3
## # … with 46 more rows
```

5.  There are some handy helper functions for `select`; read about all
    of them using `?select_helpers`. **`starts_with()`**,
    **`ends_with()`**, and `contains()` are oftenly used, especially
    when the variables are named with suffixes or other standard
    patterns.

``` r
select(litters_data, starts_with("gd"))
## # A tibble: 49 × 3
##   gd0_weight gd18_weight gd_of_birth
##        <dbl>       <dbl>       <dbl>
## 1       19.7        34.7          20
## 2       27          42            19
## 3       26          41.4          19
## # … with 46 more rows
```

``` r
select(litters_data, ends_with("weight"))
## # A tibble: 49 × 2
##   gd0_weight gd18_weight
##        <dbl>       <dbl>
## 1       19.7        34.7
## 2       27          42  
## 3       26          41.4
## # … with 46 more rows
```

6.  **`everything`** is handy for reorganizing columns without
    discarding anything. This way we pull the variables `litter_number`
    and `pups_survive` to the front, and every other variables follows
    after that. Kind of like rearranging the columns (variables) in the
    way we like it to demonstrate.

``` r
select(litters_data, litter_number, pups_survive, everything())
## # A tibble: 49 × 8
##   litter_number pups_survive group gd0_weight gd18_wei…¹ gd_of…² pups_…³ pups_…⁴
##   <chr>                <dbl> <chr>      <dbl>      <dbl>   <dbl>   <dbl>   <dbl>
## 1 #85                      3 Con7        19.7       34.7      20       3       4
## 2 #1/2/95/2                7 Con7        27         42        19       8       0
## 3 #5/5/3/83/3-3            5 Con7        26         41.4      19       6       0
## # … with 46 more rows, and abbreviated variable names ¹​gd18_weight,
## #   ²​gd_of_birth, ³​pups_born_alive, ⁴​pups_dead_birth
```

### Rename

If we just want to rename something, just use the `rename` instead of
`select`. This way we can rename some variables but also keep the rest
of the variables that we want.

``` r
rename(litters_data, GROUP = group, LITTER_number = litter_number)
## # A tibble: 49 × 8
##   GROUP LITTER_number gd0_weight gd18_weight gd_of_birth pups_…¹ pups_…² pups_…³
##   <chr> <chr>              <dbl>       <dbl>       <dbl>   <dbl>   <dbl>   <dbl>
## 1 Con7  #85                 19.7        34.7          20       3       4       3
## 2 Con7  #1/2/95/2           27          42            19       8       0       7
## 3 Con7  #5/5/3/83/3-3       26          41.4          19       6       0       5
## # … with 46 more rows, and abbreviated variable names ¹​pups_born_alive,
## #   ²​pups_dead_birth, ³​pups_survive
```
…
-   `!((pups_survive == 4) & (gd_of_birth == 20))` : Filter out the rows
    where `pups_survive` = 4 **and** `gd_of_birth` = 20, and keep the
    rest.

-   `group %in% c("Con7", "Con8")` : Select rows that has “Con7” or
    “Con8” on the `group` column.

-   `group == "Con7" & gd_of_birth == 20` : Select rows where `group` =
    “Con7” and `gd_of_birth` = 20.

Example code chunk:

``` r
filter(litters_data, gd_of_birth == 20)
## # A tibble: 32 × 8
##   group litter_number gd0_weight gd18_weight gd_of_birth pups_…¹ pups_…² pups_…³
##   <chr> <chr>              <dbl>       <dbl>       <dbl>   <dbl>   <dbl>   <dbl>
## 1 Con7  #85                 19.7        34.7          20       3       4       3
## 2 Con7  #4/2/95/3-3         NA          NA            20       6       0       6
## 3 Con7  #2/2/95/3-2         NA          NA            20       6       0       4
## # … with 29 more rows, and abbreviated variable names ¹​pups_born_alive,
## #   ²​pups_dead_birth, ³​pups_survive
```
…
## Mutate

**Create new** variables or **change** existing variables using
`mutate`.

The example below creates a new variable measuring the difference
between `gd18_weight` and `gd0_weight` and modifies the existing `group`
variable.

``` r
mutate(litters_data,
       wt_gain = gd18_weight - gd0_weight,
       group = str_to_lower(group), # `str_to_lower` makes all the alphabets in the `group` column to lowercase
       wt_gain_kg = wt_gain * 2.2)
## # A tibble: 49 × 10
##   group litter…¹ gd0_w…² gd18_…³ gd_of…⁴ pups_…⁵ pups_…⁶ pups_…⁷ wt_gain wt_ga…⁸
##   <chr> <chr>      <dbl>   <dbl>   <dbl>   <dbl>   <dbl>   <dbl>   <dbl>   <dbl>
## 1 con7  #85         19.7    34.7      20       3       4       3    15      33  
## 2 con7  #1/2/95…    27      42        19       8       0       7    15      33  
## 3 con7  #5/5/3/…    26      41.4      19       6       0       5    15.4    33.9
## # … with 46 more rows, and abbreviated variable names ¹​litter_number,
## #   ²​gd0_weight, ³​gd18_weight, ⁴​gd_of_birth, ⁵​pups_born_alive,
## #   ⁶​pups_dead_birth, ⁷​pups_survive, ⁸​wt_gain_kg
```
…
You can also sort in descending order.

``` r
arrange(litters_data, desc(group), desc(pups_born_alive))
## # A tibble: 49 × 8
##   group litter_number gd0_weight gd18_weight gd_of_birth pups_…¹ pups_…² pups_…³
##   <chr> <chr>              <dbl>       <dbl>       <dbl>   <dbl>   <dbl>   <dbl>
## 1 Mod8  #5/93               NA          41.1          20      11       0       9
## 2 Mod8  #2/95/2             28.5        44.5          20       9       0       9
## 3 Mod8  #97                 24.5        42.8          20       8       1       8
## # … with 46 more rows, and abbreviated variable names ¹​pups_born_alive,
## #   ²​pups_dead_birth, ³​pups_survive
```
…
litters_data_clean_names = janitor::clean_names(litters_data_raw)

litters_data_selected_cols = select(litters_data_clean_names, -pups_survive)

litters_data_with_vars = mutate(litters_data_selected_cols,
                                wt_gain = gd18_weight - gd0_weight,
                                group = str_to_lower(group))

litters_data_with_vars_without_missing = drop_na(litters_data_with_vars, wt_gain)

litters_data_with_vars_without_missing
## # A tibble: 31 × 8
##   group litter_number gd0_weight gd18_weight gd_of_birth pups_…¹ pups_…² wt_gain
##   <chr> <chr>              <dbl>       <dbl>       <int>   <int>   <int>   <dbl>
## 1 con7  #85                 19.7        34.7          20       3       4    15  
## 2 con7  #1/2/95/2           27          42            19       8       0    15  
## 3 con7  #5/5/3/83/3-3       26          41.4          19       6       0    15.4
## # … with 28 more rows, and abbreviated variable names ¹​pups_born_alive,
## #   ²​pups_dead_birth
```
…
litters_data_clean
## # A tibble: 31 × 8
##   group litter_number gd0_weight gd18_weight gd_of_birth pups_…¹ pups_…² wt_gain
##   <chr> <chr>              <dbl>       <dbl>       <int>   <int>   <int>   <dbl>
## 1 con7  #85                 19.7        34.7          20       3       4    15  
## 2 con7  #1/2/95/2           27          42            19       8       0    15  
## 3 con7  #5/5/3/83/3-3       26          41.4          19       6       0    15.4
## # … with 28 more rows, and abbreviated variable names ¹​pups_born_alive,
## #   ²​pups_dead_birth
```
…
3.  **Piping**

``` r
litters_data =
  read_csv("./Example_Data/FAS_litters.csv", col_types = "ccddiiii") %>%
  janitor::clean_names() %>%
  select(-pups_survive) %>%
  mutate(
    wt_gain = gd18_weight - gd0_weight,
    group = str_to_lower(group)) %>%
  drop_na(wt_gain)

litters_data
## # A tibble: 31 × 8
##   group litter_number gd0_weight gd18_weight gd_of_birth pups_…¹ pups_…² wt_gain
##   <chr> <chr>              <dbl>       <dbl>       <int>   <int>   <int>   <dbl>
## 1 con7  #85                 19.7        34.7          20       3       4    15  
## 2 con7  #1/2/95/2           27          42            19       8       0    15  
## 3 con7  #5/5/3/83/3-3       26          41.4          19       6       0    15.4
## # … with 28 more rows, and abbreviated variable names ¹​pups_born_alive,
## #   ²​pups_dead_birth
```
…
